{
	"email": {
		"to": "tom.wright@shineproducts.com.au, tom.wright@latrobe.edu.au, tom.w.wright@live.com",
		"from": "mailer@mailer.com"
	},
	"inlinerOptions": {
		"url": "http://localhost:8080",
		"removeStyleTags": false,
		"removeHtmlSelectors": false
	}
}
